{
    "components": {
        "schemas": {
            "Empty": {
                "title": "Empty Schema",
                "type": "object"
            }
        }
    },
    "info": {
        "title": "task11_api",
        "version": "2024-07-04T21:54:56Z"
    },
    "openapi": "3.0.1",
    "paths": {
        "/reservations": {
            "get": {
                "description": "This is my description",
                "responses": {
                    "200": {
                        "content": {
                            "application/json": {
                                "schema": {
                                    "$ref": "#/components/schemas/ArrayOfReservations"
                                }
                            }
                        },
                        "description": "200 response"
                    }
                },
                "summary": "This is signup summary",
                "x-amazon-apigateway-integration": {
                    "httpMethod": "POST",
                    "passthroughBehavior": "when_no_match",
                    "responses": {
                        "default": {
                            "statusCode": "200"
                        }
                    },
                    "type": "aws_proxy",
                    "uri": "arn:aws:apigateway:eu-central-1:lambda:path/2015-03-31/functions/arn:aws:lambda:eu-central-1:196241772369:function:api_handler/invocations"
                }
            },
            "post": {
                "description": "This is my description",
				 "requestBody": {
                    "firstName": "Tricia",
                    "lastName": "McMillan",
                    "userName": "Trillian"
                },
                "responses": {
                    "200": {
                        "content": {
                            "application/json": {
                                "schema": {
                                    "$ref": "#/components/schemas/Empty"
                                }
                            }
                        },
                        "description": "200 response"
                    }
                },
                "summary": "This is signup summary",
                "x-amazon-apigateway-integration": {
                    "httpMethod": "POST",
                    "passthroughBehavior": "when_no_match",
                    "responses": {
                        "default": {
                            "statusCode": "200"
                        }
                    },
                    "type": "aws_proxy",
                    "uri": "arn:aws:apigateway:eu-central-1:lambda:path/2015-03-31/functions/arn:aws:lambda:eu-central-1:196241772369:function:api_handler/invocations"
                }
            }
        },
        "/signin": {
            "post": {
                "description": "This is my description",
				 "requestBody": {
                    "firstName": "Tricia",
                    "lastName": "McMillan",
                    "userName": "Trillian"
                },
                "responses": {
                    "200": {
                        "content": {
                            "application/json": {
                                "schema": {
                                    "$ref": "#/components/schemas/Empty"
                                }
                            }
                        },
                        "description": "200 response"
                    }
                },
                "summary": "This is signup summary",
                "x-amazon-apigateway-integration": {
                    "httpMethod": "POST",
                    "passthroughBehavior": "when_no_match",
                    "responses": {
                        "default": {
                            "statusCode": "200"
                        }
                    },
                    "type": "aws_proxy",
                    "uri": "arn:aws:apigateway:eu-central-1:lambda:path/2015-03-31/functions/arn:aws:lambda:eu-central-1:196241772369:function:api_handler/invocations"
                }
            }
        },
        "/signup": {
            "post": {
                "description": "This is my description",
                "requestBody": {
                    "firstName": "Tricia",
                    "lastName": "McMillan",
                    "userName": "Trillian"
                },
                "responses": {
                    "200": {
                        "content": {
                            "application/json": {
                                "schema": {
                                    "$ref": "#/components/schemas/Empty"
                                }
                            }
                        },
                        "description": "200 response"
                    }
                },
                "summary": "This is signup summary",
                "x-amazon-apigateway-integration": {
                    "httpMethod": "POST",
                    "passthroughBehavior": "when_no_match",
                    "responses": {
                        "default": {
                            "statusCode": "200"
                        }
                    },
                    "type": "aws_proxy",
                    "uri": "arn:aws:apigateway:eu-central-1:lambda:path/2015-03-31/functions/arn:aws:lambda:eu-central-1:196241772369:function:api_handler/invocations"
                }
            }
        },
        "/tables": {
            "get": {
                "description": "This is my description",
                "responses": {
                    "200": {
                        "content": {
                            "application/json": {
                                "schema": {
                                    "$ref": "#/components/schemas/Empty"
                                }
                            }
                        },
                        "description": "200 response"
                    }
                },
                "summary": "This is signup summary",
                "x-amazon-apigateway-integration": {
                    "httpMethod": "POST",
                    "passthroughBehavior": "when_no_match",
                    "responses": {
                        "default": {
                            "statusCode": "200"
                        }
                    },
                    "type": "aws_proxy",
                    "uri": "arn:aws:apigateway:eu-central-1:lambda:path/2015-03-31/functions/arn:aws:lambda:eu-central-1:196241772369:function:api_handler/invocations"
                }
            },
            "post": {
                "description": "This is my description",
				 "requestBody": {
                    "firstName": "Tricia",
                    "lastName": "McMillan",
                    "userName": "Trillian"
                },
                "responses": {
                    "200": {
                        "content": {
                            "application/json": {
                                "schema": {
                                    "$ref": "#/components/schemas/Empty"
                                }
                            }
                        },
                        "description": "200 response"
                    }
                },
                "summary": "This is signup summary",
                "x-amazon-apigateway-integration": {
                    "httpMethod": "POST",
                    "passthroughBehavior": "when_no_match",
                    "responses": {
                        "default": {
                            "statusCode": "200"
                        }
                    },
                    "type": "aws_proxy",
                    "uri": "arn:aws:apigateway:eu-central-1:lambda:path/2015-03-31/functions/arn:aws:lambda:eu-central-1:196241772369:function:api_handler/invocations"
                }
            }
        },
        "/tables/{tableId}": {
            "get": {
                "description": "This is my description",
                "parameters": [
                    {
                        "in": "path",
                        "name": "tableId",
                        "required": true,
                        "schema": {
                            "type": "string"
                        }
                    }
                ],
                "responses": {
                    "200": {
                        "content": {
                            "application/json": {
                                "schema": {
                                    "$ref": "#/components/schemas/Empty"
                                }
                            }
                        },
                        "description": "200 response",
                        "headers": {
                            "Access-Control-Allow-Origin": {
                                "schema": {
                                    "type": "string"
                                }
                            }
                        }
                    }
                },
                "summary": "This is signup summary",
                "x-amazon-apigateway-integration": {
                    "httpMethod": "POST",
                    "passthroughBehavior": "when_no_match",
                    "responses": {
                        "default": {
                            "responseParameters": {
                                "method.response.header.Access-Control-Allow-Origin": "'*'"
                            },
                            "statusCode": "200"
                        }
                    },
                    "type": "aws_proxy",
                    "uri": "arn:aws:apigateway:eu-central-1:lambda:path/2015-03-31/functions/arn:aws:lambda:eu-central-1:196241772369:function:api_handler/invocations"
                }
            },
            "options": {
                "parameters": [
                    {
                        "in": "path",
                        "name": "tableId",
                        "required": true,
                        "schema": {
                            "type": "string"
                        }
                    }
                ],
                "responses": {
                    "200": {
                        "content": {
                            "application/json": {
                                "schema": {
                                    "$ref": "#/components/schemas/Empty"
                                }
                            }
                        },
                        "description": "200 response",
                        "headers": {
                            "Access-Control-Allow-Headers": {
                                "schema": {
                                    "type": "string"
                                }
                            },
                            "Access-Control-Allow-Methods": {
                                "schema": {
                                    "type": "string"
                                }
                            },
                            "Access-Control-Allow-Origin": {
                                "schema": {
                                    "type": "string"
                                }
                            }
                        }
                    }
                },
                "x-amazon-apigateway-integration": {
                    "passthroughBehavior": "when_no_match",
                    "requestTemplates": {
                        "application/json": "{\"statusCode\": 200}"
                    },
                    "responses": {
                        "default": {
                            "responseParameters": {
                                "method.response.header.Access-Control-Allow-Headers": "'Content-Type,X-Amz-Date,Authorization,X-Api-Key,X-Amz-Security-Token'",
                                "method.response.header.Access-Control-Allow-Methods": "'*'",
                                "method.response.header.Access-Control-Allow-Origin": "'*'"
                            },
                            "statusCode": "200"
                        }
                    },
                    "type": "mock"
                }
            }
        }
    },
    "servers": [
        {
            "url": "https://903nwxp8de.execute-api.eu-central-1.amazonaws.com/{basePath}",
            "variables": {
                "basePath": {
                    "default": "api"
                }
            }
        }
    ]
}