{
  "lambda-basic-execution": {
    "policy_content": {
      "Statement": [
        {
          "Action": [
            "logs:CreateLogGroup",
            "logs:CreateLogStream",
            "logs:PutLogEvents",
            "dynamodb:GetItem",
            "dynamodb:Query",
            "dynamodb:PutItem",
            "dynamodb:Batch*",
            "dynamodb:DeleteItem",
            "ssm:PutParameter",
            "ssm:GetParameter",
            "kms:Decrypt"
          ],
          "Effect": "Allow",
          "Resource": "*"
        }
      ],
      "Version": "2012-10-17"
    },
    "resource_type": "iam_policy"
  },
  "lambda-task03e-role": {
    "predefined_policies": [],
    "principal_service": "lambda",
    "custom_policies": [
      "lambda-basic-execution"
    ],
    "resource_type": "iam_role"
  },
  "task3_api": {
    "resource_type": "api_gateway",
    "deploy_stage": "api",
    "dependencies": [],
    "resources": {
      "/hello": {
        "enable_cors": false,
        "GET": {
          "authorization_type": "NONE",
          "integration_type": "lambda",
          "lambda_name": "hello_world",
          "api_key_required": false,
          "method_request_parameters": {},
          "integration_request_body_template": {},
          "responses": [],
          "integration_responses": [],
          "default_error_pattern": true
        }
      }
    },
    "minimum_compression_size": 0
  }
}